[
    {
        "extra_notes": null, 
        "version": "devgeantv"
    }, 
    {
        "extra_notes": null, 
        "version": "dev4"
    }, 
    {
        "extra_notes": null, 
        "version": "dev3python3"
    }, 
    {
        "extra_notes": null, 
        "version": "95rc1python3"
    }, 
    {
        "extra_notes": null, 
        "version": "95rc1"
    }, 
    {
        "extra_notes": null, 
        "version": "95"
    }, 
    {
        "extra_notes": null, 
        "version": "94rc1"
    }, 
    {
        "extra_notes": null, 
        "version": "94python3"
    }, 
    {
        "extra_notes": null, 
        "version": "94a"
    }, 
    {
        "extra_notes": null, 
        "version": "94"
    }, 
    {
        "extra_notes": null, 
        "version": "93python3"
    }, 
    {
        "extra_notes": null, 
        "version": "93c"
    }, 
    {
        "extra_notes": null, 
        "version": "93a"
    }, 
    {
        "extra_notes": null, 
        "version": "93"
    }, 
    {
        "extra_notes": null, 
        "version": "92python3"
    }, 
    {
        "extra_notes": null, 
        "version": "92"
    }, 
    {
        "extra_notes": null, 
        "version": "91python3"
    }, 
    {
        "extra_notes": null, 
        "version": "91a"
    }, 
    {
        "extra_notes": null, 
        "version": "91"
    }, 
    {
        "extra_notes": null, 
        "version": "90a"
    }, 
    {
        "extra_notes": null, 
        "version": "90"
    }, 
    {
        "extra_notes": null, 
        "version": "89python3"
    }, 
    {
        "extra_notes": null, 
        "version": "89"
    }, 
    {
        "extra_notes": null, 
        "version": "88a"
    }, 
    {
        "extra_notes": null, 
        "version": "88"
    }, 
    {
        "extra_notes": null, 
        "version": "87"
    }, 
    {
        "extra_notes": null, 
        "version": "86"
    }, 
    {
        "extra_notes": null, 
        "version": "85swan3"
    }, 
    {
        "extra_notes": null, 
        "version": "85swan2"
    }, 
    {
        "extra_notes": null, 
        "version": "85b"
    }, 
    {
        "extra_notes": null, 
        "version": "85a"
    }, 
    {
        "extra_notes": null, 
        "version": "85"
    }, 
    {
        "extra_notes": null, 
        "version": "84swan3"
    }, 
    {
        "extra_notes": null, 
        "version": "84swan2"
    }, 
    {
        "extra_notes": null, 
        "version": "84swan1"
    }, 
    {
        "extra_notes": null, 
        "version": "84"
    }, 
    {
        "extra_notes": null, 
        "version": "83"
    }, 
    {
        "extra_notes": null, 
        "version": "82"
    }, 
    {
        "extra_notes": null, 
        "version": "81f"
    }, 
    {
        "extra_notes": null, 
        "version": "81e"
    }, 
    {
        "extra_notes": null, 
        "version": "81d"
    }, 
    {
        "extra_notes": null, 
        "version": "81c"
    }, 
    {
        "extra_notes": null, 
        "version": "81b"
    }, 
    {
        "extra_notes": null, 
        "version": "81a"
    }, 
    {
        "extra_notes": null, 
        "version": "80"
    }, 
    {
        "extra_notes": null, 
        "version": "79"
    }, 
    {
        "extra_notes": null, 
        "version": "78root6"
    }, 
    {
        "extra_notes": null, 
        "version": "77root6"
    }, 
    {
        "extra_notes": null, 
        "version": "76root6"
    }, 
    {
        "extra_notes": null, 
        "version": "75root6"
    }, 
    {
        "extra_notes": null, 
        "version": "74root6"
    }, 
    {
        "extra_notes": null, 
        "version": "73root6"
    }, 
    {
        "extra_notes": null, 
        "version": "72root6"
    }, 
    {
        "extra_notes": null, 
        "version": "72a"
    }, 
    {
        "extra_notes": null, 
        "version": "71root6"
    }, 
    {
        "extra_notes": null, 
        "version": "71"
    }, 
    {
        "extra_notes": null, 
        "version": "70root6"
    }, 
    {
        "extra_notes": null, 
        "version": "70"
    }, 
    {
        "extra_notes": null, 
        "version": "69root6"
    }, 
    {
        "extra_notes": null, 
        "version": "69"
    }, 
    {
        "extra_notes": null, 
        "version": "68root6"
    }, 
    {
        "extra_notes": null, 
        "version": "68"
    }, 
    {
        "extra_notes": null, 
        "version": "67a"
    }, 
    {
        "extra_notes": null, 
        "version": "67"
    }, 
    {
        "extra_notes": null, 
        "version": "66"
    }, 
    {
        "extra_notes": null, 
        "version": "65a"
    }, 
    {
        "extra_notes": null, 
        "version": "65"
    }, 
    {
        "extra_notes": null, 
        "version": "64d"
    }, 
    {
        "extra_notes": null, 
        "version": "64c"
    }, 
    {
        "extra_notes": null, 
        "version": "64b"
    }, 
    {
        "extra_notes": null, 
        "version": "64a"
    }, 
    {
        "extra_notes": null, 
        "version": "64"
    }, 
    {
        "extra_notes": null, 
        "version": "63"
    }, 
    {
        "extra_notes": null, 
        "version": "62b"
    }, 
    {
        "extra_notes": null, 
        "version": "62a"
    }, 
    {
        "extra_notes": null, 
        "version": "62"
    }, 
    {
        "extra_notes": null, 
        "version": "61g"
    }, 
    {
        "extra_notes": null, 
        "version": "61f"
    }, 
    {
        "extra_notes": null, 
        "version": "61e"
    }, 
    {
        "extra_notes": null, 
        "version": "61d"
    }, 
    {
        "extra_notes": null, 
        "version": "61c"
    }, 
    {
        "extra_notes": null, 
        "version": "61b"
    }, 
    {
        "extra_notes": null, 
        "version": "61a"
    }, 
    {
        "extra_notes": null, 
        "version": "61"
    }
]